; Engine configuration file.
; It's best edited using the editor UI and not directly,
; since the parameters that go here are not all obvious.
;
; Format:
;   [section] ; section goes between []
;   param=value ; assign values to parameters

config_version=4

_global_script_classes=[  ]
_global_script_class_icons={

}

[application]

config/name="New Game Project"
run/main_scene="res://Main.tscn"
config/icon="res://icon.png"

[gdnative]

singletons=[ "res://addons/godot-openvr/godot_openvr.gdnlib" ]

[rendering]

quality/intended_usage/framebuffer_allocation.mobile=2
quality/voxel_cone_tracing/high_quality=false
quality/depth/hdr.mobile=true
environment/default_environment="res://default_env.tres"
